{
  "project_info": {
    "project_number": "424859983517",
    "project_id": "electric-unity-118410"
  },
  "client": [
    {
      "client_info": {
        "mobilesdk_app_id": "1:424859983517:android:0ac5d10c18637bb3",
        "android_client_info": {
          "package_name": "noonacademy.haimaldemo"
        }
      },
      "oauth_client": [
        {
          "client_id": "424859983517-bgl0scokgihfe8h47rmkjc6d13o0sdms.apps.googleusercontent.com",
          "client_type": 3
        },
        {
          "client_id": "424859983517-mveg9fkak6nrnhqn3vjr34fkthei8gqn.apps.googleusercontent.com",
          "client_type": 1,
          "android_info": {
            "package_name": "noonacademy.haimaldemo",
            "certificate_hash": "6af2d8750735be1974591bbd2a2d9f1bd896988c"
          }
        }
      ],
      "api_key": [
        {
          "current_key": "AIzaSyDlvxKRyb3tNUgsrkvEgneXQ6aWB25KGuI"
        }
      ],
      "services": {
        "analytics_service": {
          "status": 1
        },
        "appinvite_service": {
          "status": 1,
          "other_platform_oauth_client": []
        },
        "ads_service": {
          "status": 1
        }
      }
    }
  ],
  "configuration_version": "1"
}