-- Merging decision tree log ---
manifest
ADDED from /Users/haimal/Haimal/My Files/Coding/Android/OldProjects/noon-academy/app/src/main/AndroidManifest.xml:2:1-43:12
	package
		ADDED from /Users/haimal/Haimal/My Files/Coding/Android/OldProjects/noon-academy/app/src/main/AndroidManifest.xml:3:5-37
		INJECTED from /Users/haimal/Haimal/My Files/Coding/Android/OldProjects/noon-academy/app/src/main/AndroidManifest.xml
		INJECTED from /Users/haimal/Haimal/My Files/Coding/Android/OldProjects/noon-academy/app/src/main/AndroidManifest.xml
	android:versionName
		INJECTED from /Users/haimal/Haimal/My Files/Coding/Android/OldProjects/noon-academy/app/src/main/AndroidManifest.xml
		INJECTED from /Users/haimal/Haimal/My Files/Coding/Android/OldProjects/noon-academy/app/src/main/AndroidManifest.xml
	xmlns:android
		ADDED from /Users/haimal/Haimal/My Files/Coding/Android/OldProjects/noon-academy/app/src/main/AndroidManifest.xml:2:11-69
	android:versionCode
		INJECTED from /Users/haimal/Haimal/My Files/Coding/Android/OldProjects/noon-academy/app/src/main/AndroidManifest.xml
		INJECTED from /Users/haimal/Haimal/My Files/Coding/Android/OldProjects/noon-academy/app/src/main/AndroidManifest.xml
uses-permission#android.permission.INTERNET
ADDED from /Users/haimal/Haimal/My Files/Coding/Android/OldProjects/noon-academy/app/src/main/AndroidManifest.xml:5:5-67
MERGED from [com.google.firebase:firebase-analytics:9.8.0] /Users/haimal/.android/build-cache/ac7e98f48e6539edbd1b4a094b85ec7bfa95a735/output/AndroidManifest.xml:20:5-66
MERGED from [com.google.firebase:firebase-analytics-impl:9.8.0] /Users/haimal/.android/build-cache/48c8b6f85c092a6bc8dae158301dc317167f3e39/output/AndroidManifest.xml:20:5-66
MERGED from [com.google.firebase:firebase-iid:9.8.0] /Users/haimal/.android/build-cache/8cd42b8fb74b727ca44847a8f3ff5fcc6db0292f/output/AndroidManifest.xml:20:5-66
	android:name
		ADDED from /Users/haimal/Haimal/My Files/Coding/Android/OldProjects/noon-academy/app/src/main/AndroidManifest.xml:5:22-64
uses-permission#android.permission.GET_ACCOUNTS
ADDED from /Users/haimal/Haimal/My Files/Coding/Android/OldProjects/noon-academy/app/src/main/AndroidManifest.xml:6:5-71
	android:name
		ADDED from /Users/haimal/Haimal/My Files/Coding/Android/OldProjects/noon-academy/app/src/main/AndroidManifest.xml:6:22-68
uses-permission#android.permission.READ_EXTERNAL_STORAGE
ADDED from /Users/haimal/Haimal/My Files/Coding/Android/OldProjects/noon-academy/app/src/main/AndroidManifest.xml:7:5-80
	android:name
		ADDED from /Users/haimal/Haimal/My Files/Coding/Android/OldProjects/noon-academy/app/src/main/AndroidManifest.xml:7:22-77
uses-permission#android.permission.WRITE_EXTERNAL_STORAGE
ADDED from /Users/haimal/Haimal/My Files/Coding/Android/OldProjects/noon-academy/app/src/main/AndroidManifest.xml:8:5-81
	android:name
		ADDED from /Users/haimal/Haimal/My Files/Coding/Android/OldProjects/noon-academy/app/src/main/AndroidManifest.xml:8:22-78
application
ADDED from /Users/haimal/Haimal/My Files/Coding/Android/OldProjects/noon-academy/app/src/main/AndroidManifest.xml:10:5-41:19
MERGED from [com.android.support.constraint:constraint-layout:1.0.2] /Users/haimal/.android/build-cache/b8275b9139590c9740524ab6cde5f2400f700b0a/output/AndroidManifest.xml:9:5-20
MERGED from [com.google.android.gms:play-services-auth:9.8.0] /Users/haimal/.android/build-cache/740048ba8117fe338c1a01f519442d4f654538bd/output/AndroidManifest.xml:19:5-25:19
MERGED from [com.google.android.gms:play-services-base:9.8.0] /Users/haimal/.android/build-cache/3ff67ecc4ebbba42231687ac77a363de7e39d8e7/output/AndroidManifest.xml:18:5-20:19
MERGED from [com.android.support:design:25.3.1] /Users/haimal/.android/build-cache/73443df5e2f8ca2427ff27f9b3d269139a307936/output/AndroidManifest.xml:29:5-20
MERGED from [com.android.support:appcompat-v7:25.3.1] /Users/haimal/.android/build-cache/dcd9bca4d8690773f91e4f649a1c088fd8e4e169/output/AndroidManifest.xml:29:5-20
MERGED from [com.android.support:animated-vector-drawable:25.3.1] /Users/haimal/.android/build-cache/834285a65e711f1a21a6f7222a0f0f933269bd18/output/AndroidManifest.xml:26:5-20
MERGED from [com.android.support:support-vector-drawable:25.3.1] /Users/haimal/.android/build-cache/7d0fd430d5c1d512868d47ba47550f77b60e30c8/output/AndroidManifest.xml:26:5-20
MERGED from [com.android.support:transition:25.3.1] /Users/haimal/.android/build-cache/508a25e4577a1be7737b79e2ad1e7307e089a04b/output/AndroidManifest.xml:26:5-20
MERGED from [com.android.support:cardview-v7:25.3.1] /Users/haimal/.android/build-cache/5e990c7bff1df6e68729770d6df835ed35b1591c/output/AndroidManifest.xml:26:5-20
MERGED from [com.google.firebase:firebase-core:9.8.0] /Users/haimal/.android/build-cache/e3fbe8e1afdc6f3d2f310d1afd41c21100b009d1/output/AndroidManifest.xml:5:5-20
MERGED from [com.google.firebase:firebase-analytics:9.8.0] /Users/haimal/.android/build-cache/ac7e98f48e6539edbd1b4a094b85ec7bfa95a735/output/AndroidManifest.xml:24:5-33:19
MERGED from [com.google.firebase:firebase-analytics-impl:9.8.0] /Users/haimal/.android/build-cache/48c8b6f85c092a6bc8dae158301dc317167f3e39/output/AndroidManifest.xml:24:5-28:19
MERGED from [com.google.firebase:firebase-iid:9.8.0] /Users/haimal/.android/build-cache/8cd42b8fb74b727ca44847a8f3ff5fcc6db0292f/output/AndroidManifest.xml:28:5-50:19
MERGED from [com.google.firebase:firebase-common:9.8.0] /Users/haimal/.android/build-cache/10f4e0827bfca59871d0fb06fba3ae36073526a6/output/AndroidManifest.xml:4:5-7:19
MERGED from [com.google.android.gms:play-services-tasks:9.8.0] /Users/haimal/.android/build-cache/e988ed8f7873d002ea0abf3f0d74af95324b1282/output/AndroidManifest.xml:4:5-19
MERGED from [com.google.android.gms:play-services-basement:9.8.0] /Users/haimal/.android/build-cache/5e3e55177e4b0fd4cbe031fdb06cd5639fd77229/output/AndroidManifest.xml:19:5-21:19
MERGED from [com.android.support:support-v4:25.3.1] /Users/haimal/.android/build-cache/568c94fb725082c142739ea659748d01d7f38769/output/AndroidManifest.xml:29:5-20
MERGED from [com.android.support:support-fragment:25.3.1] /Users/haimal/.android/build-cache/3732777ae45fddee100158b4af24c43b1344284c/output/AndroidManifest.xml:29:5-20
MERGED from [com.android.support:support-media-compat:25.3.1] /Users/haimal/.android/build-cache/c86955a833093a2dc6d75bdb58cb06aa8617b1e6/output/AndroidManifest.xml:29:5-20
MERGED from [com.android.support:support-core-ui:25.3.1] /Users/haimal/.android/build-cache/5735edfd4fa88a7c8365c5ae6fb6b962dc603ee0/output/AndroidManifest.xml:29:5-20
MERGED from [com.android.support:support-core-utils:25.3.1] /Users/haimal/.android/build-cache/d470b51b439842150a858411ab0905e29fc85799/output/AndroidManifest.xml:29:5-20
MERGED from [com.android.support:support-compat:25.3.1] /Users/haimal/.android/build-cache/43a4b1fc201049c2e8ab051635247c97f4a56ccb/output/AndroidManifest.xml:29:5-20
	android:label
		ADDED from /Users/haimal/Haimal/My Files/Coding/Android/OldProjects/noon-academy/app/src/main/AndroidManifest.xml:13:9-41
	android:supportsRtl
		ADDED from /Users/haimal/Haimal/My Files/Coding/Android/OldProjects/noon-academy/app/src/main/AndroidManifest.xml:15:9-36
	android:roundIcon
		ADDED from /Users/haimal/Haimal/My Files/Coding/Android/OldProjects/noon-academy/app/src/main/AndroidManifest.xml:14:9-48
	android:allowBackup
		ADDED from /Users/haimal/Haimal/My Files/Coding/Android/OldProjects/noon-academy/app/src/main/AndroidManifest.xml:11:9-35
	android:icon
		ADDED from /Users/haimal/Haimal/My Files/Coding/Android/OldProjects/noon-academy/app/src/main/AndroidManifest.xml:12:9-43
	android:theme
		ADDED from /Users/haimal/Haimal/My Files/Coding/Android/OldProjects/noon-academy/app/src/main/AndroidManifest.xml:16:9-40
activity#noonacademy.haimaldemo.activities.Login
ADDED from /Users/haimal/Haimal/My Files/Coding/Android/OldProjects/noon-academy/app/src/main/AndroidManifest.xml:19:9-26:20
	android:screenOrientation
		ADDED from /Users/haimal/Haimal/My Files/Coding/Android/OldProjects/noon-academy/app/src/main/AndroidManifest.xml:21:13-49
	android:name
		ADDED from /Users/haimal/Haimal/My Files/Coding/Android/OldProjects/noon-academy/app/src/main/AndroidManifest.xml:20:13-45
intent-filter#android.intent.action.MAIN+android.intent.category.LAUNCHER
ADDED from /Users/haimal/Haimal/My Files/Coding/Android/OldProjects/noon-academy/app/src/main/AndroidManifest.xml:22:13-25:29
action#android.intent.action.MAIN
ADDED from /Users/haimal/Haimal/My Files/Coding/Android/OldProjects/noon-academy/app/src/main/AndroidManifest.xml:23:17-69
	android:name
		ADDED from /Users/haimal/Haimal/My Files/Coding/Android/OldProjects/noon-academy/app/src/main/AndroidManifest.xml:23:25-66
category#android.intent.category.LAUNCHER
ADDED from /Users/haimal/Haimal/My Files/Coding/Android/OldProjects/noon-academy/app/src/main/AndroidManifest.xml:24:17-77
	android:name
		ADDED from /Users/haimal/Haimal/My Files/Coding/Android/OldProjects/noon-academy/app/src/main/AndroidManifest.xml:24:27-74
activity#noonacademy.haimaldemo.activities.HomeScreen
ADDED from /Users/haimal/Haimal/My Files/Coding/Android/OldProjects/noon-academy/app/src/main/AndroidManifest.xml:28:9-30:52
	android:screenOrientation
		ADDED from /Users/haimal/Haimal/My Files/Coding/Android/OldProjects/noon-academy/app/src/main/AndroidManifest.xml:30:13-49
	android:name
		ADDED from /Users/haimal/Haimal/My Files/Coding/Android/OldProjects/noon-academy/app/src/main/AndroidManifest.xml:29:13-50
activity#noonacademy.haimaldemo.activities.AddSubjects
ADDED from /Users/haimal/Haimal/My Files/Coding/Android/OldProjects/noon-academy/app/src/main/AndroidManifest.xml:31:9-33:52
	android:screenOrientation
		ADDED from /Users/haimal/Haimal/My Files/Coding/Android/OldProjects/noon-academy/app/src/main/AndroidManifest.xml:33:13-49
	android:name
		ADDED from /Users/haimal/Haimal/My Files/Coding/Android/OldProjects/noon-academy/app/src/main/AndroidManifest.xml:32:13-51
activity#noonacademy.haimaldemo.activities.Subjects
ADDED from /Users/haimal/Haimal/My Files/Coding/Android/OldProjects/noon-academy/app/src/main/AndroidManifest.xml:34:9-36:52
	android:screenOrientation
		ADDED from /Users/haimal/Haimal/My Files/Coding/Android/OldProjects/noon-academy/app/src/main/AndroidManifest.xml:36:13-49
	android:name
		ADDED from /Users/haimal/Haimal/My Files/Coding/Android/OldProjects/noon-academy/app/src/main/AndroidManifest.xml:35:13-48
activity#noonacademy.haimaldemo.activities.DrawActivity
ADDED from /Users/haimal/Haimal/My Files/Coding/Android/OldProjects/noon-academy/app/src/main/AndroidManifest.xml:37:9-39:52
	android:screenOrientation
		ADDED from /Users/haimal/Haimal/My Files/Coding/Android/OldProjects/noon-academy/app/src/main/AndroidManifest.xml:39:13-49
	android:name
		ADDED from /Users/haimal/Haimal/My Files/Coding/Android/OldProjects/noon-academy/app/src/main/AndroidManifest.xml:38:13-52
uses-sdk
INJECTED from /Users/haimal/Haimal/My Files/Coding/Android/OldProjects/noon-academy/app/src/main/AndroidManifest.xml reason: use-sdk injection requested
MERGED from [com.android.support.constraint:constraint-layout:1.0.2] /Users/haimal/.android/build-cache/b8275b9139590c9740524ab6cde5f2400f700b0a/output/AndroidManifest.xml:5:5-7:41
MERGED from [com.google.android.gms:play-services-auth:9.8.0] /Users/haimal/.android/build-cache/740048ba8117fe338c1a01f519442d4f654538bd/output/AndroidManifest.xml:17:5-42
MERGED from [com.google.android.gms:play-services-auth-base:9.8.0] /Users/haimal/.android/build-cache/02d89bf72eb90ae9fe41474eff61cf581a8f1b2d/output/AndroidManifest.xml:4:5-42
MERGED from [com.google.android.gms:play-services-base:9.8.0] /Users/haimal/.android/build-cache/3ff67ecc4ebbba42231687ac77a363de7e39d8e7/output/AndroidManifest.xml:17:5-42
MERGED from [com.android.support:design:25.3.1] /Users/haimal/.android/build-cache/73443df5e2f8ca2427ff27f9b3d269139a307936/output/AndroidManifest.xml:21:5-23:62
MERGED from [com.android.support:appcompat-v7:25.3.1] /Users/haimal/.android/build-cache/dcd9bca4d8690773f91e4f649a1c088fd8e4e169/output/AndroidManifest.xml:21:5-23:78
MERGED from [com.android.support:animated-vector-drawable:25.3.1] /Users/haimal/.android/build-cache/834285a65e711f1a21a6f7222a0f0f933269bd18/output/AndroidManifest.xml:20:5-44
MERGED from [com.android.support:support-vector-drawable:25.3.1] /Users/haimal/.android/build-cache/7d0fd430d5c1d512868d47ba47550f77b60e30c8/output/AndroidManifest.xml:20:5-43
MERGED from [com.android.support:recyclerview-v7:25.3.1] /Users/haimal/.android/build-cache/73f2976000b45afc72542747d45c51166d6d0d94/output/AndroidManifest.xml:20:5-43
MERGED from [com.android.support:transition:25.3.1] /Users/haimal/.android/build-cache/508a25e4577a1be7737b79e2ad1e7307e089a04b/output/AndroidManifest.xml:20:5-44
MERGED from [com.android.support:cardview-v7:25.3.1] /Users/haimal/.android/build-cache/5e990c7bff1df6e68729770d6df835ed35b1591c/output/AndroidManifest.xml:20:5-43
MERGED from [com.google.firebase:firebase-core:9.8.0] /Users/haimal/.android/build-cache/e3fbe8e1afdc6f3d2f310d1afd41c21100b009d1/output/AndroidManifest.xml:4:5-42
MERGED from [com.google.firebase:firebase-analytics:9.8.0] /Users/haimal/.android/build-cache/ac7e98f48e6539edbd1b4a094b85ec7bfa95a735/output/AndroidManifest.xml:17:5-42
MERGED from [com.google.firebase:firebase-analytics-impl:9.8.0] /Users/haimal/.android/build-cache/48c8b6f85c092a6bc8dae158301dc317167f3e39/output/AndroidManifest.xml:17:5-42
MERGED from [com.google.firebase:firebase-iid:9.8.0] /Users/haimal/.android/build-cache/8cd42b8fb74b727ca44847a8f3ff5fcc6db0292f/output/AndroidManifest.xml:17:5-42
MERGED from [com.google.firebase:firebase-common:9.8.0] /Users/haimal/.android/build-cache/10f4e0827bfca59871d0fb06fba3ae36073526a6/output/AndroidManifest.xml:3:5-42
MERGED from [com.google.android.gms:play-services-tasks:9.8.0] /Users/haimal/.android/build-cache/e988ed8f7873d002ea0abf3f0d74af95324b1282/output/AndroidManifest.xml:3:5-42
MERGED from [com.google.android.gms:play-services-basement:9.8.0] /Users/haimal/.android/build-cache/5e3e55177e4b0fd4cbe031fdb06cd5639fd77229/output/AndroidManifest.xml:17:5-42
MERGED from [com.android.support:support-v4:25.3.1] /Users/haimal/.android/build-cache/568c94fb725082c142739ea659748d01d7f38769/output/AndroidManifest.xml:21:5-23:54
MERGED from [com.android.support:support-fragment:25.3.1] /Users/haimal/.android/build-cache/3732777ae45fddee100158b4af24c43b1344284c/output/AndroidManifest.xml:21:5-23:60
MERGED from [com.android.support:support-media-compat:25.3.1] /Users/haimal/.android/build-cache/c86955a833093a2dc6d75bdb58cb06aa8617b1e6/output/AndroidManifest.xml:21:5-23:63
MERGED from [com.android.support:support-core-ui:25.3.1] /Users/haimal/.android/build-cache/5735edfd4fa88a7c8365c5ae6fb6b962dc603ee0/output/AndroidManifest.xml:21:5-23:58
MERGED from [com.android.support:support-core-utils:25.3.1] /Users/haimal/.android/build-cache/d470b51b439842150a858411ab0905e29fc85799/output/AndroidManifest.xml:21:5-23:61
MERGED from [com.android.support:support-compat:25.3.1] /Users/haimal/.android/build-cache/43a4b1fc201049c2e8ab051635247c97f4a56ccb/output/AndroidManifest.xml:21:5-23:58
	tools:overrideLibrary
		ADDED from [com.android.support:design:25.3.1] /Users/haimal/.android/build-cache/73443df5e2f8ca2427ff27f9b3d269139a307936/output/AndroidManifest.xml:23:9-59
	android:targetSdkVersion
		INJECTED from /Users/haimal/Haimal/My Files/Coding/Android/OldProjects/noon-academy/app/src/main/AndroidManifest.xml
		INJECTED from /Users/haimal/Haimal/My Files/Coding/Android/OldProjects/noon-academy/app/src/main/AndroidManifest.xml
	android:minSdkVersion
		INJECTED from /Users/haimal/Haimal/My Files/Coding/Android/OldProjects/noon-academy/app/src/main/AndroidManifest.xml
		INJECTED from /Users/haimal/Haimal/My Files/Coding/Android/OldProjects/noon-academy/app/src/main/AndroidManifest.xml
activity#com.google.android.gms.auth.api.signin.internal.SignInHubActivity
ADDED from [com.google.android.gms:play-services-auth:9.8.0] /Users/haimal/.android/build-cache/740048ba8117fe338c1a01f519442d4f654538bd/output/AndroidManifest.xml:20:9-189
	android:excludeFromRecents
		ADDED from [com.google.android.gms:play-services-auth:9.8.0] /Users/haimal/.android/build-cache/740048ba8117fe338c1a01f519442d4f654538bd/output/AndroidManifest.xml:20:129-162
	android:exported
		ADDED from [com.google.android.gms:play-services-auth:9.8.0] /Users/haimal/.android/build-cache/740048ba8117fe338c1a01f519442d4f654538bd/output/AndroidManifest.xml:20:163-187
	android:theme
		ADDED from [com.google.android.gms:play-services-auth:9.8.0] /Users/haimal/.android/build-cache/740048ba8117fe338c1a01f519442d4f654538bd/output/AndroidManifest.xml:20:69-128
	android:name
		ADDED from [com.google.android.gms:play-services-auth:9.8.0] /Users/haimal/.android/build-cache/740048ba8117fe338c1a01f519442d4f654538bd/output/AndroidManifest.xml:20:19-68
service#com.google.android.gms.auth.api.signin.RevocationBoundService
ADDED from [com.google.android.gms:play-services-auth:9.8.0] /Users/haimal/.android/build-cache/740048ba8117fe338c1a01f519442d4f654538bd/output/AndroidManifest.xml:24:9-184
	android:exported
		ADDED from [com.google.android.gms:play-services-auth:9.8.0] /Users/haimal/.android/build-cache/740048ba8117fe338c1a01f519442d4f654538bd/output/AndroidManifest.xml:24:64-87
	android:permission
		ADDED from [com.google.android.gms:play-services-auth:9.8.0] /Users/haimal/.android/build-cache/740048ba8117fe338c1a01f519442d4f654538bd/output/AndroidManifest.xml:24:88-182
	android:name
		ADDED from [com.google.android.gms:play-services-auth:9.8.0] /Users/haimal/.android/build-cache/740048ba8117fe338c1a01f519442d4f654538bd/output/AndroidManifest.xml:24:18-63
activity#com.google.android.gms.common.api.GoogleApiActivity
ADDED from [com.google.android.gms:play-services-base:9.8.0] /Users/haimal/.android/build-cache/3ff67ecc4ebbba42231687ac77a363de7e39d8e7/output/AndroidManifest.xml:19:9-172
	android:exported
		ADDED from [com.google.android.gms:play-services-base:9.8.0] /Users/haimal/.android/build-cache/3ff67ecc4ebbba42231687ac77a363de7e39d8e7/output/AndroidManifest.xml:19:146-170
	android:theme
		ADDED from [com.google.android.gms:play-services-base:9.8.0] /Users/haimal/.android/build-cache/3ff67ecc4ebbba42231687ac77a363de7e39d8e7/output/AndroidManifest.xml:19:86-145
	android:name
		ADDED from [com.google.android.gms:play-services-base:9.8.0] /Users/haimal/.android/build-cache/3ff67ecc4ebbba42231687ac77a363de7e39d8e7/output/AndroidManifest.xml:19:19-85
meta-data#android.support.VERSION
ADDED from [com.android.support:design:25.3.1] /Users/haimal/.android/build-cache/73443df5e2f8ca2427ff27f9b3d269139a307936/output/AndroidManifest.xml:25:5-27:34
MERGED from [com.android.support:appcompat-v7:25.3.1] /Users/haimal/.android/build-cache/dcd9bca4d8690773f91e4f649a1c088fd8e4e169/output/AndroidManifest.xml:25:5-27:34
MERGED from [com.android.support:animated-vector-drawable:25.3.1] /Users/haimal/.android/build-cache/834285a65e711f1a21a6f7222a0f0f933269bd18/output/AndroidManifest.xml:22:5-24:34
MERGED from [com.android.support:support-vector-drawable:25.3.1] /Users/haimal/.android/build-cache/7d0fd430d5c1d512868d47ba47550f77b60e30c8/output/AndroidManifest.xml:22:5-24:34
MERGED from [com.android.support:recyclerview-v7:25.3.1] /Users/haimal/.android/build-cache/73f2976000b45afc72542747d45c51166d6d0d94/output/AndroidManifest.xml:22:5-24:34
MERGED from [com.android.support:transition:25.3.1] /Users/haimal/.android/build-cache/508a25e4577a1be7737b79e2ad1e7307e089a04b/output/AndroidManifest.xml:22:5-24:34
MERGED from [com.android.support:cardview-v7:25.3.1] /Users/haimal/.android/build-cache/5e990c7bff1df6e68729770d6df835ed35b1591c/output/AndroidManifest.xml:22:5-24:34
MERGED from [com.android.support:support-v4:25.3.1] /Users/haimal/.android/build-cache/568c94fb725082c142739ea659748d01d7f38769/output/AndroidManifest.xml:25:5-27:34
MERGED from [com.android.support:support-fragment:25.3.1] /Users/haimal/.android/build-cache/3732777ae45fddee100158b4af24c43b1344284c/output/AndroidManifest.xml:25:5-27:34
MERGED from [com.android.support:support-media-compat:25.3.1] /Users/haimal/.android/build-cache/c86955a833093a2dc6d75bdb58cb06aa8617b1e6/output/AndroidManifest.xml:25:5-27:34
MERGED from [com.android.support:support-core-ui:25.3.1] /Users/haimal/.android/build-cache/5735edfd4fa88a7c8365c5ae6fb6b962dc603ee0/output/AndroidManifest.xml:25:5-27:34
MERGED from [com.android.support:support-core-utils:25.3.1] /Users/haimal/.android/build-cache/d470b51b439842150a858411ab0905e29fc85799/output/AndroidManifest.xml:25:5-27:34
MERGED from [com.android.support:support-compat:25.3.1] /Users/haimal/.android/build-cache/43a4b1fc201049c2e8ab051635247c97f4a56ccb/output/AndroidManifest.xml:25:5-27:34
	android:value
		ADDED from [com.android.support:design:25.3.1] /Users/haimal/.android/build-cache/73443df5e2f8ca2427ff27f9b3d269139a307936/output/AndroidManifest.xml:27:9-31
	android:name
		ADDED from [com.android.support:design:25.3.1] /Users/haimal/.android/build-cache/73443df5e2f8ca2427ff27f9b3d269139a307936/output/AndroidManifest.xml:26:9-47
uses-permission#android.permission.ACCESS_NETWORK_STATE
ADDED from [com.google.firebase:firebase-analytics:9.8.0] /Users/haimal/.android/build-cache/ac7e98f48e6539edbd1b4a094b85ec7bfa95a735/output/AndroidManifest.xml:21:5-78
MERGED from [com.google.firebase:firebase-analytics-impl:9.8.0] /Users/haimal/.android/build-cache/48c8b6f85c092a6bc8dae158301dc317167f3e39/output/AndroidManifest.xml:21:5-78
MERGED from [com.google.firebase:firebase-iid:9.8.0] /Users/haimal/.android/build-cache/8cd42b8fb74b727ca44847a8f3ff5fcc6db0292f/output/AndroidManifest.xml:19:5-78
	android:name
		ADDED from [com.google.firebase:firebase-analytics:9.8.0] /Users/haimal/.android/build-cache/ac7e98f48e6539edbd1b4a094b85ec7bfa95a735/output/AndroidManifest.xml:21:22-76
uses-permission#android.permission.WAKE_LOCK
ADDED from [com.google.firebase:firebase-analytics:9.8.0] /Users/haimal/.android/build-cache/ac7e98f48e6539edbd1b4a094b85ec7bfa95a735/output/AndroidManifest.xml:22:5-67
MERGED from [com.google.firebase:firebase-analytics-impl:9.8.0] /Users/haimal/.android/build-cache/48c8b6f85c092a6bc8dae158301dc317167f3e39/output/AndroidManifest.xml:22:5-67
MERGED from [com.google.firebase:firebase-iid:9.8.0] /Users/haimal/.android/build-cache/8cd42b8fb74b727ca44847a8f3ff5fcc6db0292f/output/AndroidManifest.xml:21:5-67
	android:name
		ADDED from [com.google.firebase:firebase-analytics:9.8.0] /Users/haimal/.android/build-cache/ac7e98f48e6539edbd1b4a094b85ec7bfa95a735/output/AndroidManifest.xml:22:22-65
receiver#com.google.android.gms.measurement.AppMeasurementReceiver
ADDED from [com.google.firebase:firebase-analytics:9.8.0] /Users/haimal/.android/build-cache/ac7e98f48e6539edbd1b4a094b85ec7bfa95a735/output/AndroidManifest.xml:25:7-26:18
MERGED from [com.google.firebase:firebase-analytics-impl:9.8.0] /Users/haimal/.android/build-cache/48c8b6f85c092a6bc8dae158301dc317167f3e39/output/AndroidManifest.xml:25:7-26:18
	android:enabled
		ADDED from [com.google.firebase:firebase-analytics:9.8.0] /Users/haimal/.android/build-cache/ac7e98f48e6539edbd1b4a094b85ec7bfa95a735/output/AndroidManifest.xml:25:90-112
	android:exported
		ADDED from [com.google.firebase:firebase-analytics:9.8.0] /Users/haimal/.android/build-cache/ac7e98f48e6539edbd1b4a094b85ec7bfa95a735/output/AndroidManifest.xml:25:113-137
	android:name
		ADDED from [com.google.firebase:firebase-analytics:9.8.0] /Users/haimal/.android/build-cache/ac7e98f48e6539edbd1b4a094b85ec7bfa95a735/output/AndroidManifest.xml:25:17-89
receiver#com.google.android.gms.measurement.AppMeasurementInstallReferrerReceiver
ADDED from [com.google.firebase:firebase-analytics:9.8.0] /Users/haimal/.android/build-cache/ac7e98f48e6539edbd1b4a094b85ec7bfa95a735/output/AndroidManifest.xml:27:7-31:18
	android:enabled
		ADDED from [com.google.firebase:firebase-analytics:9.8.0] /Users/haimal/.android/build-cache/ac7e98f48e6539edbd1b4a094b85ec7bfa95a735/output/AndroidManifest.xml:27:162-184
	android:permission
		ADDED from [com.google.firebase:firebase-analytics:9.8.0] /Users/haimal/.android/build-cache/ac7e98f48e6539edbd1b4a094b85ec7bfa95a735/output/AndroidManifest.xml:27:105-161
	android:name
		ADDED from [com.google.firebase:firebase-analytics:9.8.0] /Users/haimal/.android/build-cache/ac7e98f48e6539edbd1b4a094b85ec7bfa95a735/output/AndroidManifest.xml:27:17-104
intent-filter#com.android.vending.INSTALL_REFERRER
ADDED from [com.google.firebase:firebase-analytics:9.8.0] /Users/haimal/.android/build-cache/ac7e98f48e6539edbd1b4a094b85ec7bfa95a735/output/AndroidManifest.xml:28:11-30:27
action#com.android.vending.INSTALL_REFERRER
ADDED from [com.google.firebase:firebase-analytics:9.8.0] /Users/haimal/.android/build-cache/ac7e98f48e6539edbd1b4a094b85ec7bfa95a735/output/AndroidManifest.xml:29:15-76
	android:name
		ADDED from [com.google.firebase:firebase-analytics:9.8.0] /Users/haimal/.android/build-cache/ac7e98f48e6539edbd1b4a094b85ec7bfa95a735/output/AndroidManifest.xml:29:23-74
service#com.google.android.gms.measurement.AppMeasurementService
ADDED from [com.google.firebase:firebase-analytics:9.8.0] /Users/haimal/.android/build-cache/ac7e98f48e6539edbd1b4a094b85ec7bfa95a735/output/AndroidManifest.xml:32:7-137
MERGED from [com.google.firebase:firebase-analytics-impl:9.8.0] /Users/haimal/.android/build-cache/48c8b6f85c092a6bc8dae158301dc317167f3e39/output/AndroidManifest.xml:27:7-137
	android:enabled
		ADDED from [com.google.firebase:firebase-analytics:9.8.0] /Users/haimal/.android/build-cache/ac7e98f48e6539edbd1b4a094b85ec7bfa95a735/output/AndroidManifest.xml:32:88-110
	android:exported
		ADDED from [com.google.firebase:firebase-analytics:9.8.0] /Users/haimal/.android/build-cache/ac7e98f48e6539edbd1b4a094b85ec7bfa95a735/output/AndroidManifest.xml:32:111-135
	android:name
		ADDED from [com.google.firebase:firebase-analytics:9.8.0] /Users/haimal/.android/build-cache/ac7e98f48e6539edbd1b4a094b85ec7bfa95a735/output/AndroidManifest.xml:32:16-87
uses-permission#com.google.android.c2dm.permission.RECEIVE
ADDED from [com.google.firebase:firebase-iid:9.8.0] /Users/haimal/.android/build-cache/8cd42b8fb74b727ca44847a8f3ff5fcc6db0292f/output/AndroidManifest.xml:22:5-81
	android:name
		ADDED from [com.google.firebase:firebase-iid:9.8.0] /Users/haimal/.android/build-cache/8cd42b8fb74b727ca44847a8f3ff5fcc6db0292f/output/AndroidManifest.xml:22:22-79
permission#${applicationId}.permission.C2D_MESSAGE
ADDED from [com.google.firebase:firebase-iid:9.8.0] /Users/haimal/.android/build-cache/8cd42b8fb74b727ca44847a8f3ff5fcc6db0292f/output/AndroidManifest.xml:24:5-109
	android:protectionLevel
		ADDED from [com.google.firebase:firebase-iid:9.8.0] /Users/haimal/.android/build-cache/8cd42b8fb74b727ca44847a8f3ff5fcc6db0292f/output/AndroidManifest.xml:24:72-107
	android:name
		ADDED from [com.google.firebase:firebase-iid:9.8.0] /Users/haimal/.android/build-cache/8cd42b8fb74b727ca44847a8f3ff5fcc6db0292f/output/AndroidManifest.xml:24:17-71
uses-permission#${applicationId}.permission.C2D_MESSAGE
ADDED from [com.google.firebase:firebase-iid:9.8.0] /Users/haimal/.android/build-cache/8cd42b8fb74b727ca44847a8f3ff5fcc6db0292f/output/AndroidManifest.xml:26:5-78
	android:name
		ADDED from [com.google.firebase:firebase-iid:9.8.0] /Users/haimal/.android/build-cache/8cd42b8fb74b727ca44847a8f3ff5fcc6db0292f/output/AndroidManifest.xml:26:22-76
receiver#com.google.firebase.iid.FirebaseInstanceIdReceiver
ADDED from [com.google.firebase:firebase-iid:9.8.0] /Users/haimal/.android/build-cache/8cd42b8fb74b727ca44847a8f3ff5fcc6db0292f/output/AndroidManifest.xml:30:9-36:20
	android:exported
		ADDED from [com.google.firebase:firebase-iid:9.8.0] /Users/haimal/.android/build-cache/8cd42b8fb74b727ca44847a8f3ff5fcc6db0292f/output/AndroidManifest.xml:30:85-108
	android:permission
		ADDED from [com.google.firebase:firebase-iid:9.8.0] /Users/haimal/.android/build-cache/8cd42b8fb74b727ca44847a8f3ff5fcc6db0292f/output/AndroidManifest.xml:30:109-169
	android:name
		ADDED from [com.google.firebase:firebase-iid:9.8.0] /Users/haimal/.android/build-cache/8cd42b8fb74b727ca44847a8f3ff5fcc6db0292f/output/AndroidManifest.xml:30:19-84
intent-filter#${applicationId}+com.google.android.c2dm.intent.RECEIVE+com.google.android.c2dm.intent.REGISTRATION
ADDED from [com.google.firebase:firebase-iid:9.8.0] /Users/haimal/.android/build-cache/8cd42b8fb74b727ca44847a8f3ff5fcc6db0292f/output/AndroidManifest.xml:31:13-35:29
action#com.google.android.c2dm.intent.RECEIVE
ADDED from [com.google.firebase:firebase-iid:9.8.0] /Users/haimal/.android/build-cache/8cd42b8fb74b727ca44847a8f3ff5fcc6db0292f/output/AndroidManifest.xml:32:17-80
	android:name
		ADDED from [com.google.firebase:firebase-iid:9.8.0] /Users/haimal/.android/build-cache/8cd42b8fb74b727ca44847a8f3ff5fcc6db0292f/output/AndroidManifest.xml:32:25-78
action#com.google.android.c2dm.intent.REGISTRATION
ADDED from [com.google.firebase:firebase-iid:9.8.0] /Users/haimal/.android/build-cache/8cd42b8fb74b727ca44847a8f3ff5fcc6db0292f/output/AndroidManifest.xml:33:17-85
	android:name
		ADDED from [com.google.firebase:firebase-iid:9.8.0] /Users/haimal/.android/build-cache/8cd42b8fb74b727ca44847a8f3ff5fcc6db0292f/output/AndroidManifest.xml:33:25-83
category#${applicationId}
ADDED from [com.google.firebase:firebase-iid:9.8.0] /Users/haimal/.android/build-cache/8cd42b8fb74b727ca44847a8f3ff5fcc6db0292f/output/AndroidManifest.xml:34:17-60
	android:name
		ADDED from [com.google.firebase:firebase-iid:9.8.0] /Users/haimal/.android/build-cache/8cd42b8fb74b727ca44847a8f3ff5fcc6db0292f/output/AndroidManifest.xml:34:27-58
receiver#com.google.firebase.iid.FirebaseInstanceIdInternalReceiver
ADDED from [com.google.firebase:firebase-iid:9.8.0] /Users/haimal/.android/build-cache/8cd42b8fb74b727ca44847a8f3ff5fcc6db0292f/output/AndroidManifest.xml:40:9-119
	android:exported
		ADDED from [com.google.firebase:firebase-iid:9.8.0] /Users/haimal/.android/build-cache/8cd42b8fb74b727ca44847a8f3ff5fcc6db0292f/output/AndroidManifest.xml:40:93-117
	android:name
		ADDED from [com.google.firebase:firebase-iid:9.8.0] /Users/haimal/.android/build-cache/8cd42b8fb74b727ca44847a8f3ff5fcc6db0292f/output/AndroidManifest.xml:40:19-92
service#com.google.firebase.iid.FirebaseInstanceIdService
ADDED from [com.google.firebase:firebase-iid:9.8.0] /Users/haimal/.android/build-cache/8cd42b8fb74b727ca44847a8f3ff5fcc6db0292f/output/AndroidManifest.xml:44:9-48:19
	android:exported
		ADDED from [com.google.firebase:firebase-iid:9.8.0] /Users/haimal/.android/build-cache/8cd42b8fb74b727ca44847a8f3ff5fcc6db0292f/output/AndroidManifest.xml:44:83-106
	android:name
		ADDED from [com.google.firebase:firebase-iid:9.8.0] /Users/haimal/.android/build-cache/8cd42b8fb74b727ca44847a8f3ff5fcc6db0292f/output/AndroidManifest.xml:44:18-82
intent-filter#com.google.firebase.INSTANCE_ID_EVENT
ADDED from [com.google.firebase:firebase-iid:9.8.0] /Users/haimal/.android/build-cache/8cd42b8fb74b727ca44847a8f3ff5fcc6db0292f/output/AndroidManifest.xml:45:13-47:29
	android:priority
		ADDED from [com.google.firebase:firebase-iid:9.8.0] /Users/haimal/.android/build-cache/8cd42b8fb74b727ca44847a8f3ff5fcc6db0292f/output/AndroidManifest.xml:45:28-51
action#com.google.firebase.INSTANCE_ID_EVENT
ADDED from [com.google.firebase:firebase-iid:9.8.0] /Users/haimal/.android/build-cache/8cd42b8fb74b727ca44847a8f3ff5fcc6db0292f/output/AndroidManifest.xml:46:17-79
	android:name
		ADDED from [com.google.firebase:firebase-iid:9.8.0] /Users/haimal/.android/build-cache/8cd42b8fb74b727ca44847a8f3ff5fcc6db0292f/output/AndroidManifest.xml:46:25-77
provider#com.google.firebase.provider.FirebaseInitProvider
ADDED from [com.google.firebase:firebase-common:9.8.0] /Users/haimal/.android/build-cache/10f4e0827bfca59871d0fb06fba3ae36073526a6/output/AndroidManifest.xml:6:9-175
	android:authorities
		ADDED from [com.google.firebase:firebase-common:9.8.0] /Users/haimal/.android/build-cache/10f4e0827bfca59871d0fb06fba3ae36073526a6/output/AndroidManifest.xml:6:19-78
	android:exported
		ADDED from [com.google.firebase:firebase-common:9.8.0] /Users/haimal/.android/build-cache/10f4e0827bfca59871d0fb06fba3ae36073526a6/output/AndroidManifest.xml:6:125-149
	android:initOrder
		ADDED from [com.google.firebase:firebase-common:9.8.0] /Users/haimal/.android/build-cache/10f4e0827bfca59871d0fb06fba3ae36073526a6/output/AndroidManifest.xml:6:150-173
	android:name
		ADDED from [com.google.firebase:firebase-common:9.8.0] /Users/haimal/.android/build-cache/10f4e0827bfca59871d0fb06fba3ae36073526a6/output/AndroidManifest.xml:6:79-124
meta-data#com.google.android.gms.version
ADDED from [com.google.android.gms:play-services-basement:9.8.0] /Users/haimal/.android/build-cache/5e3e55177e4b0fd4cbe031fdb06cd5639fd77229/output/AndroidManifest.xml:20:9-121
	android:value
		ADDED from [com.google.android.gms:play-services-basement:9.8.0] /Users/haimal/.android/build-cache/5e3e55177e4b0fd4cbe031fdb06cd5639fd77229/output/AndroidManifest.xml:20:66-119
	android:name
		ADDED from [com.google.android.gms:play-services-basement:9.8.0] /Users/haimal/.android/build-cache/5e3e55177e4b0fd4cbe031fdb06cd5639fd77229/output/AndroidManifest.xml:20:20-65
